palavra	ocorencia	frequencia	sentimento	candidato	cx	cy
moral	1	0.000257	-0.183333	Marina Silva	260.86462	179.99654
decaimento	1	0.000257	-0.183333	Marina Silva	265.50046	179.98637
jornalismo	1	0.000257	-0.100000	Marina Silva	285.9241	180.3658
trabalhado	1	0.000257	0.000000	Marina Silva	293.5467	181.75754
campanha	1	0.000257	0.000000	Marina Silva	324.81473	186.95128
impostos	1	0.000257	0.000000	Marina Silva	329.00604	163.03453
medicamentos	1	0.000257	0.000000	Marina Silva	306.05	168.69955
quarto	1	0.000257	0.000000	Marina Silva	308.45786	187.61371
metalúrgica	1	0.000257	0.000000	Marina Silva	317.51086	193.9909
pretende	1	0.000257	0.000000	Marina Silva	320.43332	175.9656
pai	1	0.000257	0.050000	Marina Silva	337.43564	184.0685
membros	1	0.000257	-0.125000	Marina Silva	277.04166	179.93378
formalizada	1	0.000257	-0.125000	Marina Silva	281.18747	180.09361
sonia	1	0.000257	0.100000	Marina Silva	351.457	180.18335
empresários	1	0.000257	0.046667	Marina Silva	335.3698	176.29587
convenções	1	0.000257	0.000000	Marina Silva	320.38297	194.84993
directório	1	0.000257	0.200000	Marina Silva	384.91074	179.30737
elo	1	0.000257	0.200000	Marina Silva	380.93927	178.54422
prontidão	1	0.000257	0.200000	Marina Silva	388.92606	177.35832
próxima	1	0.000257	0.000000	Marina Silva	330.74115	170.46306
anuncia	1	0.000257	0.000000	Marina Silva	318.48993	187.97775
números	1	0.000257	0.000000	Marina Silva	311.98715	175.31044
acontecendo	1	0.000257	0.225000	Marina Silva	392.85684	180.01794
rejeição	1	0.000257	0.000000	Marina Silva	332.95517	187.45392
meet	1	0.000257	0.166667	Marina Silva	373.39032	178.36627
declarado	1	0.000257	0.016667	Marina Silva	324.9514	178.57317
projecções	1	0.000257	-0.100000	Marina Silva	287.46277	185.10678
cerca de	1	0.000257	0.433333	Marina Silva	456.54028	184.34291
sucessão	1	0.000257	0.433333	Marina Silva	458.9436	179.77025
menos	1	0.000257	-0.150000	Marina Silva	268.84128	183.68555
da lista	1	0.000257	-0.150000	Marina Silva	270.27863	173.12132
pós	1	0.000257	-0.150000	Marina Silva	270.3085	178.47021
pesquisado	1	0.000257	0.000000	Marina Silva	314.5235	168.40863
tudo	1	0.000257	0.225000	Marina Silva	393.16107	175.21146
ético	1	0.000257	0.225000	Marina Silva	396.66837	183.1091
possibilidades	1	0.000257	0.225000	Marina Silva	393.25385	170.41443
sinalizador	1	0.000257	0.000000	Marina Silva	310.86508	191.2689
negociações	1	0.000257	-0.125000	Marina Silva	273.0275	182.07428
pressione	1	0.000257	-0.125000	Marina Silva	280.03668	184.44453
negociação	1	0.000257	-0.125000	Marina Silva	279.94467	175.90408
rubricas	1	0.000257	-0.125000	Marina Silva	278.24872	189.16182
estrelas	1	0.000257	0.500000	Marina Silva	477.95798	179.7662
céu	1	0.000257	0.500000	Marina Silva	480.27374	184.30864
diz respeito	1	0.000257	0.200000	Marina Silva	384.9151	175.09145
juntando	1	0.000257	0.000000	Marina Silva	333.50568	172.6677
obviamente	1	0.000257	0.000000	Marina Silva	323.02377	162.04115
pedindo	1	0.000257	0.000000	Marina Silva	304.3246	186.84164
movimentos	1	0.000257	0.000000	Marina Silva	316.18057	161.5208
elogiou	1	0.000257	0.200000	Marina Silva	384.14282	183.09242
contas	1	0.000257	0.100000	Marina Silva	353.4935	183.6353
estabilidade	1	0.000257	0.100000	Marina Silva	353.74277	177.37321
recuperar	1	0.000257	0.000000	Marina Silva	328.23108	192.12918
credibilidade	1	0.000257	0.000000	Marina Silva	320.7517	182.56718
institucional	1	0.000257	0.000000	Marina Silva	296.20367	180.05388
gestão	1	0.000257	0.000000	Marina Silva	300.00906	186.47443
ordenou	1	0.000257	0.000000	Marina Silva	320.0081	161.10925
mestre	1	0.000257	0.000000	Marina Silva	311.70865	169.76227
doutoramento	1	0.000257	0.000000	Marina Silva	311.67557	194.82474
UnB	1	0.000257	0.000000	Marina Silva	315.6042	190.17422
inserindo	1	0.000257	0.000000	Marina Silva	308.27863	177.33772
jose	1	0.000257	0.000000	Marina Silva	312.27744	179.51494
jogou	1	0.000257	0.000000	Marina Silva	328.22925	186.51382
quatro	1	0.000257	0.000000	Marina Silva	313.87747	179.11778
estandes	1	0.000257	-0.083333	Marina Silva	292.96	177.70192
PSDC	1	0.000257	-0.083333	Marina Silva	289.70963	181.3951
tinido	1	0.000257	0.125000	Marina Silva	362.36978	175.89703
democrata	1	0.000257	0.125000	Marina Silva	360.66302	180.40353
médica	1	0.000257	0.000000	Marina Silva	310.71658	182.12173
treinamento	1	0.000257	0.000000	Marina Silva	317.29495	168.37263
pindamonhangaba	1	0.000257	0.000000	Marina Silva	332.7011	167.48982
morte	1	0.000257	0.000000	Marina Silva	314.99942	174.85048
mario	1	0.000257	0.000000	Marina Silva	312.94473	186.14195
covas	1	0.000257	0.000000	Marina Silva	335.2769	169.16801
perdeu	1	0.000257	0.000000	Marina Silva	332.99466	178.79753
coordenador	1	0.000257	0.000000	Marina Silva	319.13223	191.6647
desabrigados	1	0.000257	0.000000	Marina Silva	327.73172	200.96672
socialismo	1	0.000257	0.000000	Marina Silva	317.09464	183.20631
liberdade	1	0.000257	0.000000	Marina Silva	321.8985	179.08116
PSOL	1	0.000257	0.000000	Marina Silva	341.75372	186.97704
mecânico	1	0.000257	0.000000	Marina Silva	307.77335	182.24925
falhou	1	0.000257	-0.175000	Marina Silva	263.65738	184.46904
índices	1	0.000257	0.025000	Marina Silva	330.83676	165.19583
distrito	1	0.000257	0.062500	Marina Silva	341.10477	191.71396
esportes	1	0.000257	0.000000	Marina Silva	305.05722	179.783
ciência	1	0.000257	0.000000	Marina Silva	318.37585	181.26372
índice	1	0.000257	0.166667	Marina Silva	372.52408	182.99852
siqueira	1	0.000257	0.000000	Marina Silva	326.3617	180.76202
logo	1	0.000257	0.000000	Marina Silva	315.8185	200.89354
discorda	1	0.000257	0.000000	Marina Silva	335.99728	180.4017
de entrada	1	0.000257	0.000000	Marina Silva	317.33594	157.27231
mandato	1	0.000257	0.000000	Marina Silva	329.42535	175.09044
trimestre	1	0.000257	0.000000	Marina Silva	312.8488	203.50826
parana	1	0.000257	0.000000	Marina Silva	327.66824	152.16364
pst	1	0.000257	0.000000	Marina Silva	319.2631	163.19818
pp	1	0.000257	0.000000	Marina Silva	318.14883	172.13808
expulsos	1	0.000257	0.000000	Marina Silva	327.8739	207.04306
directrizes	1	0.000257	0.000000	Marina Silva	318.15408	176.06253
após	1	0.000257	0.000000	Marina Silva	309.8856	174.96968
PTN	1	0.000257	0.000000	Marina Silva	314.84573	188.0096
poll	1	0.000257	0.166667	Marina Silva	376.87393	175.94832
cidades	1	0.000257	0.000000	Marina Silva	323.2168	197.83781
itamar	1	0.000257	0.000000	Marina Silva	339.33194	182.60895
cardoso	1	0.000257	0.000000	Marina Silva	332.93268	174.86151
integração	1	0.000257	0.250000	Marina Silva	400.87314	181.00348
fortaleza	1	0.000257	0.000000	Marina Silva	324.74823	193.38362
oito	1	0.000257	0.000000	Marina Silva	303.72205	182.06194
PDS	1	0.000257	0.000000	Marina Silva	330.17087	189.15916
pros	1	0.000257	0.000000	Marina Silva	319.13364	181.31366
buarque	1	0.000257	0.062500	Marina Silva	342.42355	173.65671
transporta	1	0.000257	0.000000	Marina Silva	323.5815	200.42451
ética	1	0.000257	0.000000	Marina Silva	338.27924	178.91205
encabeçada	1	0.000257	0.000000	Marina Silva	321.584	172.77785
criador	1	0.000257	0.000000	Marina Silva	318.1119	185.50398
relatório	1	0.000257	0.000000	Marina Silva	308.01843	197.73718
aspectos	1	0.000257	0.000000	Marina Silva	303.9775	166.18546
judicial	1	0.000257	0.000000	Marina Silva	320.13297	151.10129
decisões	1	0.000257	0.000000	Marina Silva	306.08334	162.74532
específica	1	0.000257	0.000000	Marina Silva	311.05716	200.52756
fornecendo	1	0.000257	0.000000	Marina Silva	330.09296	181.13895
marco	1	0.000257	0.000000	Marina Silva	325.80032	190.60721
internet	1	0.000257	0.000000	Marina Silva	308.36618	190.78894
notificado	1	0.000257	0.166667	Marina Silva	376.6969	180.80763
instante	1	0.000257	-0.062500	Marina Silva	295.3681	184.64813
mecanismo	1	0.000257	0.066667	Marina Silva	343.605	183.73619
âmbito	1	0.000257	0.066667	Marina Silva	346.17493	180.95573
contemporânea	1	0.000257	0.191667	Marina Silva	380.96228	173.63203
malicioso	1	0.000257	0.191667	Marina Silva	380.34442	183.24419
se tornam	1	0.000257	0.191667	Marina Silva	376.96774	171.5426
avanço	1	0.000257	0.066667	Marina Silva	345.19632	175.70111
horas	1	0.000257	0.000000	Marina Silva	321.98758	170.54045
dentro de	1	0.000257	0.000000	Marina Silva	313.7284	171.90887
proliferam	1	0.000257	0.108333	Marina Silva	358.03763	176.69264
beneficiários	1	0.000257	0.000000	Marina Silva	310.54984	178.72552
odebrecht	1	0.000257	0.000000	Marina Silva	315.52896	205.9921
evidência	1	0.000257	0.000000	Marina Silva	323.56122	164.47032
irregularidades	1	0.000257	0.000000	Marina Silva	327.29715	197.7879
advogados	1	0.000257	-0.133333	Marina Silva	276.01712	184.88124
eleitores	1	0.000257	-0.133333	Marina Silva	269.7441	168.09366
abuso	1	0.000257	0.000000	Marina Silva	304.13	193.68735
liberdade	1	0.000257	0.000000	Marina Silva	311.15845	162.99161
expressão	1	0.000257	0.000000	Marina Silva	315.80475	196.56381
anonimato	1	0.000257	0.000000	Marina Silva	326.55432	177.06645
interina	1	0.000257	0.000000	Marina Silva	327.64087	203.8314
urls	1	0.000257	0.000000	Marina Silva	314.53082	192.6329
identificação	1	0.000257	0.000000	Marina Silva	333.28375	194.73679
criou	1	0.000257	0.000000	Marina Silva	313.57123	212.87152
Acesso	1	0.000257	0.000000	Marina Silva	319.58704	202.83546
mensagens	1	0.000257	-0.062500	Marina Silva	298.54852	177.29861
normal	1	0.000257	0.108333	Marina Silva	359.15427	172.37196
base	1	0.000257	0.108333	Marina Silva	354.84302	187.53987
meios	1	0.000257	0.108333	Marina Silva	355.75925	169.29117
ajuda	1	0.000257	0.108333	Marina Silva	358.15173	184.11325
rápido	1	0.000257	0.191667	Marina Silva	388.6691	182.03253
subornos	1	0.000257	0.000000	Marina Silva	312.29013	152.94415
exponencial	1	0.000257	0.191667	Marina Silva	377.04288	166.7291
transição	1	0.000257	0.000000	Marina Silva	313.0756	164.00401
aumentou	1	0.000257	0.000000	Marina Silva	310.07782	167.62393
cuidado	1	0.000257	0.000000	Marina Silva	326.46255	195.87144
intervenção	1	0.000257	0.000000	Marina Silva	316.41528	204.24614
cirúrgico	1	0.000257	0.000000	Marina Silva	304.37778	197.24698
sensacionais	1	0.000257	0.055556	Marina Silva	344.33786	189.07346
contendo	1	0.000257	0.055556	Marina Silva	338.07187	189.70995
corporações	1	0.000257	0.047143	Marina Silva	341.2023	179.76515
inegável	1	0.000257	-0.166667	Marina Silva	266.26508	175.58795
lançamentos	1	0.000257	-0.166667	Marina Silva	261.58588	189.028
danos	1	0.000257	-0.166667	Marina Silva	266.8156	188.39235
seguidores	1	0.000257	-0.250000	Marina Silva	241.45131	180.3056
Viralization	1	0.000257	-0.250000	Marina Silva	244.54225	184.26367
negado	1	0.000257	-0.062500	Marina Silva	292.52274	166.1934
pedidos	1	0.000257	-0.062500	Marina Silva	296.41638	187.88194
compartilhada	1	0.000257	-0.062500	Marina Silva	295.67096	174.89395
ligações	1	0.000257	-0.062500	Marina Silva	291.70367	173.8013
veracidade	1	0.000257	0.055556	Marina Silva	344.2678	170.4303
proibição	1	0.000257	0.047143	Marina Silva	336.92737	173.66878
doação de	1	0.000257	0.047143	Marina Silva	335.6846	164.6942
escala	1	0.000257	0.191667	Marina Silva	385.118	170.49113
análise	1	0.000257	0.033333	Marina Silva	333.96533	183.1936
provável	1	0.000257	0.033333	Marina Silva	332.9588	190.83904
viralizar	1	0.000257	0.033333	Marina Silva	330.64285	160.26427
zelo	1	0.000257	0.033333	Marina Silva	331.5381	203.73833
jornalistas	1	0.000257	0.033333	Marina Silva	340.46353	175.95834
fatos	1	0.000257	0.033333	Marina Silva	331.90698	200.90901
polonês	1	0.000257	0.087500	Marina Silva	348.54675	183.08987
filósofo	1	0.000257	0.087500	Marina Silva	356.0874	180.42496
zygmunt	1	0.000257	0.087500	Marina Silva	352.08804	191.18262
Bauman	1	0.000257	0.087500	Marina Silva	347.87543	172.52496
dizendo	1	0.000257	0.087500	Marina Silva	348.16696	190.26068
completa	1	0.000257	0.087500	Marina Silva	351.5561	170.75793
sólido	1	0.000257	0.087500	Marina Silva	350.54242	186.763
agravada	1	0.000257	0.000000	Marina Silva	302.46576	177.73627
Fato	1	0.000257	0.000000	Marina Silva	319.35162	207.11183
privado	1	0.000257	0.000000	Marina Silva	315.4405	156.50183
manipulação	1	0.000257	0.016667	Marina Silva	330.22595	193.94911
preço	1	0.000257	0.047143	Marina Silva	336.65234	191.48413
campanhas	1	0.000257	0.047143	Marina Silva	339.35037	170.85413
ruas	1	0.000257	0.047143	Marina Silva	338.39432	162.20335
limitado	1	0.000257	0.047143	Marina Silva	334.6876	201.99425
mais barato	1	0.000257	0.191667	Marina Silva	381.0082	168.63815
receber	1	0.000257	0.000000	Marina Silva	325.95197	164.00241
caixa	1	0.000257	0.000000	Marina Silva	304.3788	190.55582
outro	1	0.000257	0.000000	Marina Silva	301.11258	179.98557
castro	1	0.000257	0.000000	Marina Silva	302.9609	172.7245
economista	1	0.000257	0.000000	Marina Silva	330.19406	179.98914
geografia	1	0.000257	0.077778	Marina Silva	350.5053	175.02432
Estatísticas	1	0.000257	0.077778	Marina Silva	344.8998	165.82175
ibge	1	0.000257	0.077778	Marina Silva	345.9837	185.93924
BNDES	1	0.000257	0.077778	Marina Silva	348.169	168.0907
porta-voz	1	0.000257	0.000000	Marina Silva	322.21506	188.22847
avaliação	1	0.000257	0.000000	Marina Silva	308.30554	155.63313
apareceu	1	0.000257	0.000000	Marina Silva	305.2788	174.50188
anúncios	1	0.000257	0.000000	Marina Silva	319.99384	158.14977
tv	1	0.000257	0.000000	Marina Silva	307.60434	201.4831
competir	1	0.000257	0.000000	Marina Silva	327.48096	172.21779
rabello	1	0.000257	0.000000	Marina Silva	319.86905	199.9748
intecoes	1	0.000257	0.000000	Marina Silva	327.7698	177.19487
manaus	1	0.000257	0.000000	Marina Silva	320.96405	190.34296
neto	1	0.000257	0.000000	Marina Silva	311.5043	159.62596
anunciando	1	0.000257	0.000000	Marina Silva	314.62466	160.7711
escolha	1	0.000257	-0.166667	Marina Silva	264.9449	192.99953
terminou	1	0.000257	-0.083333	Marina Silva	288.26126	189.3585
else	1	0.000257	-0.083333	Marina Silva	283.75555	183.82742
tornou-se	1	0.000257	-0.083333	Marina Silva	287.45517	173.34505
investidor	1	0.000257	0.000000	Marina Silva	307.369	183.65227
diretor	1	0.000257	0.000000	Marina Silva	323.2468	147.06831
guararapes	1	0.000257	0.000000	Marina Silva	294.42374	170.76205
mais	1	0.000257	0.000000	Marina Silva	298.43958	182.86653
postulante	1	0.000257	0.000000	Marina Silva	325.45447	171.62434
look	1	0.000257	0.000000	Marina Silva	303.30713	169.44264
campos	1	0.000257	0.000000	Marina Silva	299.9561	162.055
classificado	1	0.000257	0.000000	Marina Silva	336.37054	186.52472
câmaras	1	0.000257	0.000000	Marina Silva	323.0269	152.62308
Cunha	1	0.000257	0.000000	Marina Silva	315.71756	152.64679
renunciou	1	0.000257	0.000000	Marina Silva	304.59955	154.6591
revogada	1	0.000257	0.000000	Marina Silva	312.99606	183.92062
dem	1	0.000257	0.000000	Marina Silva	322.6647	185.45619
ajudou a	1	0.000257	0.000000	Marina Silva	316.82233	213.61104
César	1	0.000257	0.100000	Marina Silva	360.08887	167.8649
Janeiro	1	0.000257	0.100000	Marina Silva	355.0341	173.30095
casado	1	0.000257	0.100000	Marina Silva	352.31998	166.53854
Patricia	1	0.000257	0.100000	Marina Silva	356.11963	191.7579
vasconcelos	1	0.000257	0.100000	Marina Silva	352.30496	161.97205
enteada	1	0.000257	0.100000	Marina Silva	359.35925	188.07863
Moreira	1	0.000257	0.100000	Marina Silva	366.9207	174.91881
geral	1	0.000257	0.100000	Marina Silva	360.0416	192.53566
secretariado	1	0.000257	0.100000	Marina Silva	366.85263	187.83807
Jornal	1	0.000257	0.166667	Marina Silva	375.7592	185.55858
fantástica	1	0.000257	0.166667	Marina Silva	373.09186	169.0965
valeria	1	0.000257	0.166667	Marina Silva	369.46912	178.72935
Monteiro	1	0.000257	0.166667	Marina Silva	376.6731	190.51996
PMN	1	0.000257	0.166667	Marina Silva	372.05664	173.9169
ação	1	0.000257	0.166667	Marina Silva	371.80768	188.29872
município	1	0.000257	0.166667	Marina Silva	375.44052	162.65051
produção de	1	0.000257	0.000000	Marina Silva	308.72232	194.35199
Riachuelo	1	0.000257	0.000000	Marina Silva	319.4191	148.45808
cabeças	1	0.000257	0.000000	Marina Silva	325.58694	182.98882
liberal	1	0.000257	0.000000	Marina Silva	304.27213	201.27307
semanas	1	0.000257	0.066667	Marina Silva	348.26117	178.19858
reflexão	1	0.000257	0.066667	Marina Silva	342.68915	196.53714
veio	1	0.000257	0.066667	Marina Silva	340.7612	164.1089
conclusão	1	0.000257	0.066667	Marina Silva	345.1371	193.21428
pretendo	1	0.000257	0.000000	Marina Silva	316.12888	149.3249
estritamente	1	0.000257	0.016667	Marina Silva	327.02332	213.73935
pessoal	1	0.000257	0.016667	Marina Silva	325.93716	155.04405
postado	1	0.000257	0.016667	Marina Silva	328.46628	157.6208
ocupada	1	0.000257	0.062500	Marina Silva	341.57504	168.28372
alto-falante	1	0.000257	0.000000	Marina Silva	307.81842	164.83339
secretária	1	0.000257	0.050000	Marina Silva	339.2682	194.65169
décadas	1	0.000257	0.050000	Marina Silva	336.52484	194.73436
quinta-feira	1	0.000257	0.100000	Marina Silva	356.2933	164.82323
luta	1	0.000257	-0.125000	Marina Silva	274.1109	170.039
solicitação	1	0.000257	-0.400000	Marina Silva	187.19023	179.84262
publicação	1	0.000257	-0.400000	Marina Silva	192.23386	179.83444
sujeitos	1	0.000257	0.000000	Marina Silva	324.46484	174.66068
traído	1	0.000257	0.000000	Marina Silva	324.35764	157.60101
decidiu	1	0.000257	-0.166667	Marina Silva	265.5819	170.74936
bilhete	1	0.000257	0.000000	Marina Silva	305.57742	151.38539
discussões	1	0.000257	0.000000	Marina Silva	311.5659	197.4896
subtítulo	1	0.000257	0.000000	Marina Silva	320.50153	210.64465
exercido	1	0.000257	0.000000	Marina Silva	343.21136	177.93056
Norte	1	0.000257	0.000000	Marina Silva	317.23975	211.25609
endossar	1	0.000257	0.000000	Marina Silva	326.1922	160.63097
por unanimidade	1	0.000257	0.000000	Marina Silva	320.09717	217.94434
compromisso	1	0.000257	0.000000	Marina Silva	323.73526	213.57866
flavio	1	0.000257	0.000000	Marina Silva	327.74512	167.75104
antecipar	1	0.000257	0.000000	Marina Silva	307.8061	171.5842
vem	1	0.000257	0.000000	Marina Silva	315.28558	197.9746
cerimónia	1	0.000257	0.200000	Marina Silva	384.14725	187.21597
marcos	1	0.000257	0.200000	Marina Silva	384.8481	165.52151
pereira	1	0.000257	0.200000	Marina Silva	386.77374	191.18237
comissão	1	0.000257	0.600000	Marina Silva	512.01807	180.06671
Arapiraca	1	0.000257	0.000000	Marina Silva	298.2093	191.42233
mello	1	0.000257	0.000000	Marina Silva	313.87317	209.5946
directo	1	0.000257	0.083333	Marina Silva	349.1549	194.51074
ditadura	1	0.000257	0.083333	Marina Silva	346.7255	197.74884
maceio	1	0.000257	0.000000	Marina Silva	316.53412	164.7352
embora	1	0.000257	0.000000	Marina Silva	303.24683	161.6424
aposentado	1	0.000257	0.000000	Marina Silva	322.51358	193.20682
sabendo	1	0.000257	0.000000	Marina Silva	336.13263	159.37592
informar	1	0.000257	-0.062500	Marina Silva	291.46414	185.58607
têmpera	1	0.000257	0.000000	Marina Silva	325.95078	168.65979
incluindo	1	0.000257	0.000000	Marina Silva	331.84927	184.33995
comércio	1	0.000000	0.000257	Marina Silva	320.41504	165.15135
away	1	0.000257	0.000000	Marina Silva	320.10312	213.58305
revisitar	1	0.000257	0.000000	Marina Silva	320.10648	145.47527
selvageria	1	0.000257	0.200000	Marina Silva	380.52655	163.54234
sócios	1	0.000257	0.000000	Marina Silva	298.12683	172.16313
cobre	1	0.000257	0.000000	Marina Silva	316.0924	172.3843
prosperar	1	0.000257	0.200000	Marina Silva	384.7746	195.7169
nação	1	0.000257	0.200000	Marina Silva	384.417	160.4791
tomados	1	0.000257	0.000000	Marina Silva	300.3114	157.67657
de trabalho	1	0.000257	0.200000	Marina Silva	381.98874	191.51195
bola	1	0.000257	0.000000	Marina Silva	310.86215	185.86429
peixe	1	0.000257	0.000000	Marina Silva	313.5096	217.24095
tom	1	0.000257	-0.375000	Marina Silva	197.48723	180.27017
fraco	1	0.000257	-0.375000	Marina Silva	202.46178	179.65291
fiado	1	0.000257	-0.375000	Marina Silva	200.49223	184.44151
vário	1	0.000257	0.000000	Marina Silva	320.02527	220.57553
inicialmente	1	0.000257	0.000000	Marina Silva	329.05963	185.20326
boo	1	0.000257	0.000000	Marina Silva	323.76514	143.45346
aplausos	1	0.000257	0.000000	Marina Silva	318.9863	197.63297
PEC	1	0.000257	0.000000	Marina Silva	319.2769	168.71545
teto	1	0.000257	0.000000	Marina Silva	311.56137	155.94543
adopção	1	0.000257	0.033333	Marina Silva	331.38367	207.21298
fundamentais	1	0.000257	0.033333	Marina Silva	337.8063	166.93327
​​igualdade	1	0.000257	0.033333	Marina Silva	335.30444	198.32207
Release	1	0.000257	0.000000	Marina Silva	306.9748	208.22821
melhorias	1	0.000257	0.227273	Marina Silva	397.07996	177.9989
positivo	1	0.000257	0.227273	Marina Silva	392.5921	185.0493
fator	1	0.000257	0.227273	Marina Silva	396.1658	188.2031
decréscimo	1	0.000257	0.227273	Marina Silva	393.9256	165.62018
processos	1	0.000257	0.227273	Marina Silva	391.64468	189.95764
slogans	1	0.000257	0.000000	Marina Silva	323.62778	210.25768
aberto	1	0.000257	0.000000	Marina Silva	311.31625	205.8558
de trabalho	1	0.000257	0.250000	Marina Silva	405.45737	180.25516
reeditado	1	0.000257	0.000000	Marina Silva	316.929	217.67674
público	1	0.000257	0.000000	Marina Silva	302.2104	184.91434
cartazes	1	0.000257	0.000000	Marina Silva	321.03128	206.22603
crescimento	1	0.000257	0.200000	Marina Silva	388.25507	186.47662
dispararam	1	0.000257	-0.375000	Marina Silva	199.46753	175.46413
pedetista	1	0.000257	0.000000	Marina Silva	307.69885	204.68439
quadrado	1	0.000257	0.050000	Marina Silva	337.80286	157.43584
democrática	1	0.000257	0.031250	Marina Silva	330.6182	154.8847
principal	1	0.000257	0.031250	Marina Silva	333.25864	162.81369
tarefa	1	0.000257	0.031250	Marina Silva	330.44952	213.82147
equipamento	1	0.000257	0.000000	Marina Silva	333.1099	156.97961
grande	1	0.000257	0.000000	Marina Silva	323.309	217.46465
privatização	1	0.000257	0.000000	Marina Silva	299.9532	169.50471
programa	1	0.000257	0.000000	Marina Silva	300.25623	165.59972
conversou	1	0.000257	0.000000	Marina Silva	311.1356	209.24948
senadores	1	0.000257	0.000000	Marina Silva	323.97513	206.91081
mais magro	1	0.000257	0.000000	Marina Silva	308.88284	152.39948
legislatura	1	0.000257	0.000000	Marina Silva	312.18646	149.37927
maior	1	0.000257	0.416667	Marina Silva	453.43542	179.77713
dissolução	1	0.000257	0.000000	Marina Silva	318.42395	153.46973
contrário	1	0.000257	0.000000	Marina Silva	326.37463	222.87202
interesses	1	0.000257	0.000000	Marina Silva	321.6675	155.26508
inacabada	1	0.000257	0.108333	Marina Silva	356.48538	160.38683
projectos	1	0.000257	0.108333	Marina Silva	363.6322	171.28996
impede	1	0.000257	0.000000	Marina Silva	319.7767	143.33286
questão	1	0.000257	0.000000	Marina Silva	316.15955	146.01553
água	1	0.000257	0.000000	Marina Silva	324.03592	203.17172
participam	1	0.000257	0.000000	Marina Silva	301.78638	189.69688
discussão	1	0.000257	0.000000	Marina Silva	316.43442	220.51398
referendos	1	0.000257	0.000000	Marina Silva	326.92905	217.80154
plebiscitos	1	0.000257	0.000000	Marina Silva	292.63962	189.1253
maneiras	1	0.000257	0.000000	Marina Silva	300.88736	198.07918
estrutural	1	0.000257	0.250000	Marina Silva	401.89258	176.28429
vaias	1	0.000257	0.000000	Marina Silva	300.1893	174.65494
passos	1	0.000257	0.108333	Marina Silva	360.68176	163.14557
imperial	1	0.000257	0.250000	Marina Silva	400.15704	191.10359
desempenho	1	0.000257	0.000000	Marina Silva	309.95358	216.37225
Nomeia	1	0.000257	0.000000	Marina Silva	308.66504	148.18222
encenado	1	0.000257	0.000000	Marina Silva	324.97662	149.96667
relacionado	1	0.000257	0.000000	Marina Silva	312.27896	145.81252
constituição	1	0.000257	0.000000	Marina Silva	296.43933	163.63628
mudanças	1	0.000257	0.250000	Marina Silva	404.70145	189.53906
máquina	1	0.000257	0.000000	Marina Silva	312.16415	141.99828
funcionários	1	0.000257	-0.041667	Marina Silva	290.35214	169.44649
irrestrito	1	0.000257	0.000000	Marina Silva	310.3546	212.11246
remendo	1	0.000257	0.078788	Marina Silva	348.38785	163.95514
truncatura	1	0.000257	0.000000	Marina Silva	323.65994	140.4828
calças	1	0.000257	0.078788	Marina Silva	348.4562	159.2667
aposentadoria	1	0.000257	0.000000	Marina Silva	297.4048	195.63397
idade	1	0.000257	0.000000	Marina Silva	330.4807	217.36621
cambaleou	1	0.000257	0.000000	Marina Silva	304.12683	158.55618
sustos	1	0.000257	0.000000	Marina Silva	327.42407	143.59943
talvez	1	0.000257	-0.291667	Marina Silva	226.5819	182.69237
votaram	1	0.000257	-0.291667	Marina Silva	226.52638	177.25655
encontrar	1	0.000257	-0.291667	Marina Silva	222.22899	180.06436
montanha	1	0.000257	-0.291667	Marina Silva	230.54797	179.93155
empresários	1	0.000257	0.000000	Marina Silva	316.42657	224.99493
reinvestir	1	0.000257	0.000000	Marina Silva	330.79785	210.58087
acompanhado	1	0.000257	0.000000	Marina Silva	328.91238	221.25922
sábado	1	0.000257	0.000000	Marina Silva	300.51053	153.98459
indataram	1	0.000257	0.000000	Marina Silva	329.60858	149.65747
incentivar	1	0.000257	0.000000	Marina Silva	308.66135	140.34682
aceita	1	0.000257	0.000000	Marina Silva	312.79013	220.47763
Proposta	1	0.000257	0.078788	Marina Silva	350.87598	199.02185
Parlamento	1	0.000257	0.100000	Marina Silva	353.49548	195.49623
evangélicos	1	0.000257	0.100000	Marina Silva	363.55334	190.1366
Atlântico	1	0.000257	0.000000	Marina Silva	332.6627	152.33871
sos	1	0.000257	0.000000	Marina Silva	306.58023	212.15953
desequilibrada	1	0.000257	0.000000	Marina Silva	319.95956	228.19493
greenpeace	1	0.000257	0.000000	Marina Silva	296.6273	167.6171
indo	1	0.000257	-0.166667	Marina Silva	266.7703	197.93497
solução	1	0.000257	0.055556	Marina Silva	344.71252	156.79938
imenso	1	0.000257	0.055556	Marina Silva	342.80402	200.66856
desafios	1	0.000257	0.055556	Marina Silva	339.20917	198.65256
valor	1	0.000257	0.000000	Marina Silva	323.8919	136.71532
excedente	1	0.000257	0.200000	Marina Silva	384.66064	155.38713
avaaz	1	0.000257	0.000000	Marina Silva	320.15356	140.07326
ipês	1	0.000257	0.000000	Marina Silva	289.13016	177.33589
criminalizar	1	0.000257	0.100000	Marina Silva	362.90692	184.73706
mst	1	0.000257	0.100000	Marina Silva	354.90634	200.06766
terroristas	1	0.000257	0.100000	Marina Silva	357.2591	155.41386
salvamento	1	0.000257	0.100000	Marina Silva	352.70163	208.95488
família	1	0.000257	0.100000	Marina Silva	353.40048	152.16187
valores	1	0.000257	0.100000	Marina Silva	357.89438	196.35968
simpatia	1	0.000257	0.100000	Marina Silva	360.6398	158.65582
hectares	1	0.000257	0.500000	Marina Silva	483.26266	180.06908
betão	1	0.000257	0.150000	Marina Silva	368.3159	170.0985
lembrete	1	0.000257	0.150000	Marina Silva	368.2103	192.22726
vida	1	0.000257	0.000000	Marina Silva	331.6953	197.22668
de renda	1	0.000257	0.234091	Marina Silva	395.20212	193.0898
mudas	1	0.000257	0.000000	Marina Silva	302.68353	213.54446
viagem	1	0.000257	0.000000	Marina Silva	334.88895	206.09583
comprar	1	0.000257	0.000000	Marina Silva	293.3494	196.27568
frigorífico	1	0.000257	0.000000	Marina Silva	344.52704	161.52625
responsável	1	0.000257	0.200000	Marina Silva	379.92334	187.52116
hospício	1	0.000257	0.134091	Marina Silva	364.78815	179.8078
extracto	1	0.000257	-0.041667	Marina Silva	301.37567	194.02397
orientação	1	0.000257	0.466667	Marina Silva	469.66135	175.17397
maior	1	0.000257	0.466667	Marina Silva	469.36234	183.94604
História	1	0.000257	0.466667	Marina Silva	472.55307	179.70563
maior	1	0.000257	0.466667	Marina Silva	467.4152	179.69357
Gold	1	0.000257	-0.041667	Marina Silva	296.02286	159.21239
brasileiros	1	0.000257	0.100000	Marina Silva	352.11548	203.89685
minerais	1	0.000257	-0.041667	Marina Silva	287.98804	165.07869
ferro	1	0.000257	-0.041667	Marina Silva	296.18497	203.86339
professores	1	0.000257	-0.100000	Marina Silva	283.0958	172.21368
exercício	1	0.000257	-0.100000	Marina Silva	281.09763	193.50198
sala de aula	1	0.000257	-0.100000	Marina Silva	284.16464	161.78127
sexo	1	0.000257	0.000000	Marina Silva	323.53906	220.55869
ideologia	1	0.000257	0.000000	Marina Silva	315.8085	142.5736
actividades	1	0.000257	0.216667	Marina Silva	389.33853	172.737
feliz	1	0.000257	0.400000	​​Marina Silva	448.63156	178.64522
parceiro	1	0.000257	0.400000	​​Marina Silva	448.3809	190.30313
curriculum	1	0.000257	0.000000	Marina Silva	335.34982	154.74174
Dinamarca	1	0.000257	0.500000	Marina Silva	480.35248	175.5307
mineração	1	0.000257	0.216667	Marina Silva	390.03528	194.59026
participação	1	0.000257	0.000000	Marina Silva	320.42154	137.07811
proibição	1	0.000257	0.216667	Marina Silva	389.40845	167.86186
manutenção	1	0.000257	0.216667	Marina Silva	388.46054	199.33089
chamando	1	0.000257	0.216667	Marina Silva	389.05725	158.26288
corporativo	1	0.000257	0.134091	Marina Silva	362.8213	154.5206
manganês	1	0.000257	-0.041667	Marina Silva	284.34152	176.48257
no andar inferior	1	0.000257	-0.800000	Marina Silva	63.581615	180.30042
SEGURANÇA	1	0.000257	0.000000	Marina Silva	296.5317	154.86353
floresta	1	0.000257	0.000000	Marina Silva	317.19116	135.79462
lembrou	1	0.000257	0.000000	Marina Silva	299.56952	206.68364
julgados	1	0.000257	0.000000	Marina Silva	306.37766	216.22366
confederação	1	0.000257	0.000000	Marina Silva	292.301	161.97627
níveis	1	0.000257	0.000000	Marina Silva	312.96066	224.93257
aumento de	1	0.000257	0.000000	Marina Silva	316.49576	228.2797
válida	1	0.000257	-0.025000	Marina Silva	304.17392	204.97403
organizado	1	0.000257	0.000000	Marina Silva	340.88846	159.80627
vai	1	0.000257	0.000000	Marina Silva	300.18942	202.38794
melhoria de	1	0.000257	0.000000	Marina Silva	321.6979	133.49678
sector	1	0.000257	0.750000	Marina Silva	559.57947	180.30042
qualificada	1	0.000257	0.500000	Marina Silva	480.40543	189.56085
mesa	1	0.000257	0.000000	Marina Silva	309.3335	219.62538
desaparecem	1	0.000257	0.000000	Marina Silva	327.19742	147.35826
renans	1	0.000257	-0.250000	Marina Silva	238.97427	176.06897
aecios	1	0.000257	-0.250000	Marina Silva	239.44164	184.77492
padilhas	1	0.000257	-0.250000	Marina Silva	243.68289	175.35103
apoiantes	1	0.000257	0.000000	Marina Silva	294.61963	192.46468
temers	1	0.000257	-0.250000	Marina Silva	240.11185	189.8516
acrobacias	1	0.000257	0.000000	Marina Silva	307.62772	159.19946
convenção	1	0.000257	0.000000	Marina Silva	314.8287	130.00665
impune	1	0.000257	-0.250000	Marina Silva	246.73283	179.5546
congressistas	1	0.000257	0.000000	Marina Silva	303.2078	209.2173
autoridades	1	0.000257	0.000000	Marina Silva	313.1603	228.52771
permite	1	0.000257	0.000000	Marina Silva	302.7483	217.86665
sustentável	1	0.000257	0.200000	Marina Silva	381.85062	199.66939
propriedade	1	0.000257	-0.200000	Marina Silva	256.11603	177.90991
shot	1	0.000257	0.000000	Marina Silva	304.64127	146.98735
misericórdia	1	0.000257	0.000000	Marina Silva	327.37332	210.44432
representate	1	0.000257	0.000000	Marina Silva	320.03284	224.55917
souza	1	0.000257	0.000000	Marina Silva	308.54858	144.40038
estimulou	1	0.000257	0.000000	Marina Silva	323.2609	225.41112
entre	1	0.000257	0.000000	Marina Silva	301.77847	149.73155
múltipla	1	0.000257	-0.062500	Marina Silva	288.38232	160.61276
erros	1	0.000257	0.250000	Marina Silva	406.72833	175.33801
Respondeu	1	0.000257	0.000000	Marina Silva	331.3447	145.96994
todos	1	0.000257	-0.062500	Marina Silva	278.8239	171.46185
nível	1	0.000257	0.000000	Marina Silva	309.12283	223.69548
ideias	1	0.000257	0.200000	Marina Silva	379.40668	195.13861
arredondamento	1	0.000257	-0.062500	Marina Silva	277.74927	167.23438
soma	1	0.000257	-0.062500	Marina Silva	288.5589	197.04192
da manhã	1	0.000257	0.000000	Marina Silva	286.46906	169.22798
adicione	1	0.000257	-0.062500	Marina Silva	288.00034	149.34802
começam	1	0.000257	-0.062500	Marina Silva	286.77963	141.75325
sinal	1	0.000257	-0.062500	Marina Silva	283.7715	197.79224
ataques	1	0.000257	0.000000	Marina Silva	295.5211	208.40381
pastas	1	0.000257	0.000000	Marina Silva	297.7077	150.49881
prisão	1	0.000257	-0.025000	Marina Silva	290.35208	192.9058
certamente	1	0.000257	0.214286	Marina Silva	389.06354	163.10056
Neves	1	0.000257	-0.066667	Marina Silva	285.90332	157.00331
populares	1	0.000257	0.300000	Marina Silva	417.45355	179.6872
psl	1	0.000257	0.000000	Marina Silva	299.2444	211.19019
manto	1	0.000257	-0.250000	Marina Silva	239.93042	171.17426
tristeza	1	0.000257	0.000000	Marina Silva	321.97	166.91151
peça	1	0.000257	0.000000	Marina Silva	316.19327	138.90717
vivendo	1	0.000257	0.000000	Marina Silva	299.11447	216.24242
dificuldades	1	0.000257	0.195455	Marina Silva	380.79935	151.918
criação	1	0.000257	0.000000	Marina Silva	313.94492	134.41438
pesquisa	1	0.000257	-0.062500	Marina Silva	288.29202	153.5793
percentagens	1	0.000257	-0.062500	Marina Silva	286.26624	206.81978
surge	1	0.000257	0.000000	Marina Silva	334.60107	210.35126
da tarde	1	0.000257	0.000000	Marina Silva	295.31686	147.1409
operação	1	0.000257	-0.066667	Marina Silva	285.6573	193.23279
Aecio	1	0.000257	-0.066667	Marina Silva	282.26572	202.93929
lançamentos	1	0.000257	0.000000	Marina Silva	305.3317	220.9613
submetido	1	0.000257	0.000000	Marina Silva	326.82614	134.84077
política	1	0.000257	0.250000	Marina Silva	400.7519	186.07976
busca	1	0.000257	0.000000	Marina Silva	309.06906	227.75505
em conjunto	1	0.000257	0.000000	Marina Silva	319.53577	232.17157
favor	1	0.000257	0.000000	Marina Silva	296.8338	199.6556
justiça	1	0.000257	0.000000	Marina Silva	327.31558	139.5552
menção	1	0.000257	-0.066667	Marina Silva	284.7263	146.13023
capaz	1	0.000257	0.250000	Marina Silva	399.07693	167.02936
municípios	1	0.000257	0.000000	Marina Silva	315.07462	232.50693
pesos	1	0.000257	0.000000	Marina Silva	312.83594	138.31259
faz	2	0.000515	0.000000	Marina Silva	291.33102	205.39114
eduardo	2	0.000515	0.000000	Marina Silva	304.2253	142.6281
deu origem a	2	0.000000	0.000515	Marina Silva	319.80362	184.91013
vezes	2	0.000515	0.055556	Marina Silva	338.39133	151.30276
caiu	2	0.000515	-0.016667	Marina Silva	282.63275	166.88103
Eliminação	2	0.000515	0.000000	Marina Silva	334.4	214.9639
destaque	2	0.000515	0.000000	Marina Silva	291.60126	156.68378
rodrigo	2	0.000515	0.000000	Marina Silva	304.639	137.51315
passe	2	0.000515	-0.050000	Marina Silva	290.54752	145.26866
nomeados	2	0.000515	0.000000	Marina Silva	310.16583	232.7978
investimento	2	0.000515	0.067045	Marina Silva	344.00018	151.0416
aplicação	2	0.000515	0.008333	Marina Silva	323.0687	234.76164
autoridade	2	0.000515	-0.034375	Marina Silva	290.78885	139.14052
quinta	2	0.000515	0.000000	Marina Silva	317.71368	236.02048
hoje	2	0.000515	0.112500	Marina Silva	363.7393	195.8605
momento	2	0.000515	0.000000	Marina Silva	331.39166	141.79074
celebração	2	0.000515	-0.031250	Marina Silva	290.72937	210.39114
ambientalistas	2	0.000515	0.108333	Marina Silva	360.20844	200.63971
finanças	2	0.000515	0.000000	Marina Silva	339.0495	203.36685
esperança	2	0.000515	-0.043750	Marina Silva	287.05258	201.76859
mão	2	0.000515	-0.031250	Marina Silva	295.447	219.30365
equipa	2	0.000515	0.175000	Marina Silva	376.08777	199.00795
jair	2	0.000515	0.027778	Marina Silva	348.52188	154.04431
possui	2	0.000515	0.000000	Marina Silva	304.72354	225.529
perguntas	2	0.000515	-0.031250	Marina Silva	295.64496	136.52972
privilegiada	2	0.000515	-0.125000	Marina Silva	275.1812	158.40616
remove	2	0.000515	0.000000	Marina Silva	318.18448	131.87685
burocracia	2	0.000515	0.050000	Marina Silva	347.3677	202.40056
bancada	2	0.000515	0.050000	Marina Silva	343.19272	205.4681
Segunda-feira	2	0.000515	0.000000	Marina Silva	327.61874	227.08667
de alimentação	2	0.000515	0.015625	Marina Silva	330.92975	136.8186
MPS	2	0.000515	0.050000	Marina Silva	349.08917	148.88693
sete	2	0.000515	0.157143	Marina Silva	370.21097	164.46432
posição	2	0.000515	0.027778	Marina Silva	334.94785	148.50061
principal	2	0.000515	0.111111	Marina Silva	361.97656	206.0837
diálogo	2	0.000515	-0.039167	Marina Silva	285.6108	136.2137
continuar	2	0.000515	-0.062500	Marina Silva	274.8532	175.4632
muito	2	0.000515	0.083333	Marina Silva	352.76895	157.13156
conferências	2	0.000515	-0.125000	Marina Silva	273.50146	164.28252
tamanho	2	0.000515	0.250000	Marina Silva	399.64655	196.45059
a indústria	2	0.000515	0.000000	Marina Silva	295.1672	213.53168
ar	2	0.000515	-0.200000	Marina Silva	252.28734	181.85805
ganha	2	0.000515	0.027778	Marina Silva	339.14728	208.03903
imagem	2	0.000515	-0.266667	Marina Silva	235.75539	180.46631
ofender	2	0.000515	-0.266667	Marina Silva	234.13417	186.2917
Jó	2	0.000515	0.000000	Marina Silva	299.78296	145.59886
líquido	2	0.000515	0.093750	Marina Silva	356.41666	204.91637
vote	2	0.000515	0.041667	Marina Silva	339.93246	147.18523
página	2	0.000515	-0.172222	Marina Silva	261.02472	174.59032
sem	2	0.000515	0.127778	Marina Silva	368.04407	183.62282
apresentação	2	0.000515	0.000000	Marina Silva	292.73245	151.19902
medidas	2	0.000515	0.000000	Marina Silva	323.7448	229.8335
agindo	2	0.000515	0.050000	Marina Silva	348.19107	207.72981
Arthur	2	0.000515	-0.016667	Marina Silva	292.3246	200.52022
Virgilio	2	0.000515	-0.016667	Marina Silva	299.91724	139.97977
sugestões	2	0.000515	0.000000	Marina Silva	295.2958	142.29759
vêm	2	0.000515	0.000000	Marina Silva	300.22635	222.04828
investir	2	0.000515	0.000000	Marina Silva	320.17163	128.33447
debate	2	0.000515	0.008333	Marina Silva	338.90674	212.9601
declaração	2	0.000515	-0.016667	Marina Silva	295.77637	225.04872
querem	2	0.000515	-0.187500	Marina Silva	258.06	184.37473
a partir de	2	0.000515	-0.062500	Marina Silva	283.25052	188.69513
acre	2	0.000515	0.000000	Marina Silva	300.49948	228.02231
necessidades	2	0.000515	0.025000	Marina Silva	341.40393	154.69177
alagoas	2	0.000515	0.000000	Marina Silva	309.30484	135.68217
cni	2	0.000515	0.100000	Marina Silva	357.77	210.15512
plano	2	0.000515	-0.145833	Marina Silva	270.07404	193.21257
fórum	2	0.000515	-0.125000	Marina Silva	275.6637	193.41664
extinção	2	0.000515	0.000000	Marina Silva	305.40393	231.07593
potencial	2	0.000515	-0.087500	Marina Silva	277.29303	152.66196
economia	2	0.000515	0.000000	Marina Silva	305.4626	132.298
até	2	0.000515	-0.145833	Marina Silva	272.8086	198.63933
colocar	2	0.000515	-0.031250	Marina Silva	278.7528	198.5193
Barbosa	2	0.000515	0.100000	Marina Silva	354.1311	146.96544
joaquim	2	0.000515	0.100000	Marina Silva	365.67862	201.75626
fiscal	2	0.000515	0.208333	Marina Silva	385.98874	149.63138
diz	2	0.000515	0.300000	Marina Silva	415.90204	185.05142
acidente	2	0.000515	-0.145833	Marina Silva	269.42484	159.84367
mostrar	2	0.000515	0.008333	Marina Silva	324.74042	130.96072
assumido	2	0.000515	0.034091	Marina Silva	331.55975	224.4794
rebelo	2	0.000515	0.000000	Marina Silva	312.52072	236.94293
impeachment	2	0.000515	0.000000	Marina Silva	290.77118	221.95737
democracia	2	0.000515	-0.041667	Marina Silva	283.24353	151.75166
eventos	2	0.000515	0.025000	Marina Silva	333.8065	220.18541
organizações	2	0.000515	0.025000	Marina Silva	338.2527	218.38795
judicial	2	0.000515	0.025000	Marina Silva	330.2414	131.92128
University	2	0.000515	0.225000	Marina Silva	397.79486	172.54929
desenvolvimento	2	0.000515	0.038889	Marina Silva	335.79324	144.12079
conteúdo	2	0.000515	0.027778	Marina Silva	343.6766	210.62376
contenção	2	0.000515	-0.062500	Marina Silva	279.4148	146.9057
economia	2	0.000515	0.000000	Marina Silva	300.5454	134.34445
engenharia	2	0.000515	0.100000	Marina Silva	359.45715	145.02185
réu	2	0.000515	-0.200000	Marina Silva	255.44698	172.30244
aumentando	2	0.000515	-0.012500	Marina Silva	285.9383	212.39035
resultados	2	0.000515	0.000000	Marina Silva	319.98636	123.35988
redes	2	0.000515	0.104167	Marina Silva	364.9229	166.12193
pps	2	0.000515	0.000000	Marina Silva	301.58026	128.78949
PMDB	2	0.000515	0.000000	Marina Silva	306.79837	236.93504
cenários	2	0.000515	0.000000	Marina Silva	321.3761	239.13911
John	2	0.000515	0.216667	Marina Silva	391.60678	203.94952
ceara	2	0.000515	0.000000	Marina Silva	291.08475	133.38164
sigla	2	0.000515	-0.015625	Marina Silva	281.51505	208.38716
civis	2	0.000515	0.100000	Marina Silva	353.86417	214.1011
derrotado	2	0.000515	0.000000	Marina Silva	301.3993	233.76242
prática	2	0.000515	0.116667	Marina Silva	367.88937	207.43333
saliente	2	0.000515	-0.187500	Marina Silva	259.27075	201.31357
ouviu	2	0.000515	0.000000	Marina Silva	306.80228	127.06796
aldo	2	0.000515	0.000000	Marina Silva	296.25427	231.08131
retrair	2	0.000515	0.000000	Marina Silva	310.41736	130.78157
Company	2	0.000515	0.216667	Marina Silva	390.15585	153.22803
despesas	2	0.000515	0.054167	Marina Silva	348.422	213.22908
endereçada	2	0.000515	0.097727	Marina Silva	355.90982	219.58636
ministérios	2	0.000515	0.000000	Marina Silva	291.13168	227.97235
liminar	2	0.000515	0.000000	Marina Silva	316.4269	125.9347
contestado	2	0.000515	0.000000	Marina Silva	308.8363	121.85506
encontrados	2	0.000515	0.000000	Marina Silva	316.3356	240.75246
vereador	2	0.000515	0.000000	Marina Silva	328.34085	127.92186
defendida	2	0.000515	0.050000	Marina Silva	342.68365	215.56134
MTST	2	0.000515	0.225000	Marina Silva	393.91693	198.39877
de controlo	2	0.000515	0.258333	Marina Silva	403.43817	170.62175
siglas	2	0.000515	0.035714	Marina Silva	344.82834	145.35594
primário	2	0.000515	0.154167	Marina Silva	369.49478	197.33156
ativista	2	0.000515	0.275000	Marina Silva	407.96277	185.22198
Boulos	2	0.000515	0.162500	Marina Silva	372.23035	158.46277
Registro de	2	0.000515	-0.041667	Marina Silva	279.15607	162.44345
deputados	2	0.000515	0.000000	Marina Silva	296.43585	130.89954
meses	2	0.000515	0.222727	Marina Silva	394.63132	209.5239
sp	2	0.000515	-0.027778	Marina Silva	281.0188	157.19899
reduzindo	2	0.000515	0.000000	Marina Silva	310.70966	241.61118
ey	2	0.000515	0.125000	Marina Silva	373.78818	208.95444
representação	2	0.000515	0.257143	Marina Silva	402.7158	162.96246
Christian	2	0.000515	0.020833	Marina Silva	327.96933	232.1553
estudantes	2	0.000515	0.225000	Marina Silva	394.14044	160.29483
cc de	2	0.000515	-0.041667	Marina Silva	276.36386	210.59988
cara	2	0.000515	0.210227	Marina Silva	385.45764	204.1723
competiu	2	0.000515	0.000000	Marina Silva	286.5872	130.10773
representantes	2	0.000515	0.000000	Marina Silva	301.95193	239.10521
case	2	0.000515	0.000000	Marina Silva	311.75183	125.83095
votantes	2	0.000515	0.012500	Marina Silva	324.28232	120.65353
servido	2	0.000515	0.000000	Marina Silva	290.57962	216.13548
défice	2	0.000515	0.054167	Marina Silva	358.50742	150.65071
filho de	2	0.000515	0.075000	Marina Silva	345.93982	218.39488
Administração	2	0.000515	0.216667	Marina Silva	388.96576	209.22365
goulart	2	0.000515	0.009375	Marina Silva	324.18878	125.752495
promover	2	0.000515	0.125000	Marina Silva	359.57474	215.63972
confiança	2	0.000515	0.083333	Marina Silva	349.60028	143.33246
João	2	0.000515	0.009375	Marina Silva	320.96405	243.89635
Carlos	2	0.000515	-0.015625	Marina Silva	297.7975	125.13426
carta	2	0.000515	0.000000	Marina Silva	285.74307	218.49896
mineral	2	0.000515	0.000000	Marina Silva	309.80008	246.83153
enviou	2	0.000515	0.000000	Marina Silva	303.3378	123.25629
agendado	2	0.000515	0.000000	Marina Silva	327.2038	237.29019
exploração	2	0.000515	0.000000	Marina Silva	280.9742	214.67082
probabilidade	2	0.000515	0.083333	Marina Silva	354.7876	141.27303
reeleito	2	0.000515	0.000000	Marina Silva	335.0349	133.41083
une	2	0.000515	0.000000	Marina Silva	319.36526	119.16683
tecnologia de	2	0.000515	0.033333	Marina Silva	339.97992	136.32295
retornou	2	0.000515	0.000000	Marina Silva	291.72168	234.15309
gomes	2	0.000515	0.000000	Marina Silva	325.6379	241.47472
fala	2	0.000515	0.000000	Marina Silva	296.89914	237.16519
ciro	2	0.000515	0.000000	Marina Silva	293.76462	121.42345
jornalista	2	0.000515	0.083333	Marina Silva	346.627	223.72781
porto	2	0.000515	0.000000	Marina Silva	314.53384	121.07155
Grande	2	0.000515	0.000000	Marina Silva	292.629	240.49773
relações	2	0.000515	0.000000	Marina Silva	322.51715	115.68165
MDB	2	0.000515	0.025000	Marina Silva	332.27225	229.26813
resultado	2	0.000515	0.083333	Marina Silva	364.28622	149.24458
retratar	2	0.000515	0.083333	Marina Silva	345.07993	139.73892
levou	2	0.000515	0.233333	Marina Silva	396.05978	154.65704
estudantes	2	0.000515	0.000000	Marina Silva	305.40717	117.85326
proposto	2	0.000515	0.016667	Marina Silva	328.83157	123.07594
Sérgio	2	0.000515	0.083333	Marina Silva	350.54755	218.80154
produtividade	2	0.000515	0.100000	Marina Silva	360.15335	139.04738
reserva	2	0.000515	0.000000	Marina Silva	327.8673	117.57387
setores	2	0.000515	0.000000	Marina Silva	280.6178	220.98921
foi	2	0.000515	0.000000	Marina Silva	316.76868	115.57648
devido	2	0.000515	-0.046875	Marina Silva	272.5079	187.99834
falta	2	0.000515	-0.200000	Marina Silva	255.94797	189.76773
autor	2	0.000515	0.043750	Marina Silva	341.69528	221.6643
chamadas	2	0.000515	0.000000	Marina Silva	292.2416	127.44088
oficialmente	2	0.000515	0.000000	Marina Silva	285.92892	224.6117
a semana	2	0.000515	0.000000	Marina Silva	315.38736	245.24818
sindicatos	2	0.000515	0.000000	Marina Silva	299.63425	119.4432
vaias	2	0.000515	-0.187500	Marina Silva	260.05984	168.65312
estimular	2	0.000515	0.167045	Marina Silva	373.3506	193.79785
franco	2	0.000515	0.050000	Marina Silva	340.34964	141.75035
contaminar	2	0.000515	0.000000	Marina Silva	305.36053	242.96065
lançou	2	0.000515	0.000000	Marina Silva	281.80255	141.20679
incerteza	2	0.000515	0.143750	Marina Silva	368.05603	153.90991
atende	2	0.000515	0.000000	Marina Silva	335.74905	138.74883
compromisso	2	0.000515	-0.100000	Marina Silva	271.24554	154.06827
definições	2	0.000515	0.000000	Marina Silva	286.3574	230.95412
propostas	3	0.000772	0.000000	Marina Silva	313.95383	110.97895
empresas	3	0.000772	0.075758	Marina Silva	349.69727	137.37122
brasil	3	0.000772	0.066667	Marina Silva	342.08633	227.56177
gastos	3	0.000772	0.138889	Marina Silva	371.86258	202.9865
dados	3	0.000772	0.018519	Marina Silva	333.70392	127.18353
new	3	0.000772	0.158838	Marina Silva	370.57544	147.60045
dias	3	0.000772	0.000000	Marina Silva	301.849	113.46096
superar	3	0.000772	0.032407	Marina Silva	336.8929	224.93135
geraldo	3	0.000772	-0.027778	Marina Silva	289.29825	117.18202
falou	3	0.000772	0.000000	Marina Silva	286.8648	237.60661
escritórios	3	0.000772	0.065152	Marina Silva	352.05112	224.5535
Paula	3	0.000772	0.800000	Marina Silva	575.9548	179.65417
oceano	3	0.000772	0.800000	Marina Silva	582.69104	179.95895
fazem	3	0.000772	0.083670	Marina Silva	354.91348	135.00444
aumento de	3	0.000772	0.155556	Marina Silva	370.0428	213.69812
crítica	3	0.000772	0.044444	Marina Silva	339.04202	130.25291
alvaro	3	0.000772	0.000000	Marina Silva	311.29318	116.6828
pdt	3	0.000772	0.000000	Marina Silva	314.8294	250.40862
investimentos	3	0.000772	0.144444	Marina Silva	366.00287	136.72585
gota	3	0.000772	0.800000	Marina Silva	569.4172	179.78726
realidade	3	0.000772	0.061111	Marina Silva	344.3366	133.67076
quarta-feira	3	0.000772	0.000000	Marina Silva	275.26776	216.87679
verdade	3	0.000772	-0.022222	Marina Silva	280.72592	227.59346
collor	3	0.000772	0.000000	Marina Silva	326.12604	111.9173
falso	3	0.000772	-0.269444	Marina Silva	233.22548	174.59146
previsibilidade	3	0.000772	0.350000	Marina Silva	428.70468	179.94652
percentagem	3	0.000772	0.111111	Marina Silva	358.3741	224.73758
ONG	3	0.000772	0.000000	Marina Silva	303.8219	248.5543
período de	3	0.000772	-0.081944	Marina Silva	281.425	126.500824
permanente	3	0.000772	0.350000	Marina Silva	431.57465	185.7516
fernando	3	0.000772	0.000000	Marina Silva	332.15952	235.21748
competente	3	0.000772	0.350000	Marina Silva	431.91214	174.13083
regra	3	0.000772	0.350000	Marina Silva	431.6217	192.36143
duas vezes	3	0.000772	0.000000	Marina Silva	287.67538	123.72717
começou	3	0.000772	0.000000	Marina Silva	320.1067	110.93752
prioridade	3	0.000772	0.350000	Marina Silva	432.57388	167.26192
Datafolha	3	0.000772	0.000000	Marina Silva	298.56415	243.89844
vezes	3	0.000772	0.036111	Marina Silva	331.49808	241.63548
City	3	0.000772	0.000000	Marina Silva	317.4812	105.76006
dias	3	0.000772	0.030556	Marina Silva	331.89072	114.26173
libertado	3	0.000772	0.041667	Marina Silva	336.87076	237.73198
executivo	3	0.000772	0.200000	Marina Silva	382.81583	210.20596
financeira	3	0.000772	0.082381	Marina Silva	354.78238	128.30026
Área	3	0.000772	0.072222	Marina Silva	363.64462	211.68018
remoção	3	0.000772	0.033333	Marina Silva	338.4407	123.86956
Eymael	3	0.000772	0.041667	Marina Silva	341.93402	233.6785
Sábado	3	0.000772	0.000000	Marina Silva	281.03186	234.44644
placa	3	0.000772	0.033333	Marina Silva	333.10565	120.64464
coligações	3	0.000772	0.000000	Marina Silva	295.6462	115.235634
assinaram	3	0.000772	0.150000	Marina Silva	374.52078	152.46895
ibope	3	0.000772	0.000000	Marina Silva	309.0775	252.62881
dizer	3	0.000772	0.166667	Marina Silva	378.67737	204.65897
brasileira	3	0.000772	0.092593	Marina Silva	354.2564	230.23724
políticos	3	0.000772	0.144444	Marina Silva	370.90964	220.5419
de borracha	3	0.000772	0.000000	Marina Silva	320.48654	248.76537
Tapper	3	0.000772	0.000000	Marina Silva	272.99734	147.92665
chico	3	0.000772	0.000000	Marina Silva	314.5634	256.09503
mendes	3	0.000772	0.000000	Marina Silva	304.4484	107.1951
cortar	3	0.000772	0.000000	Marina Silva	320.02573	254.446
branco	3	0.000772	0.000000	Marina Silva	310.88754	106.15811
lei	3	0.000772	-0.029167	Marina Silva	291.299	110.58232
forte	3	0.000772	0.361111	Marina Silva	435.57312	179.99043
nomes de	3	0.000772	0.102778	Marina Silva	365.22528	143.17758
ainda	3	0.000772	-0.055556	Marina Silva	275.0651	231.33954
situação	3	0.000772	0.015714	Marina Silva	307.8779	112.071785
Placa	3	0.000772	0.144444	Marina Silva	366.6539	129.7242
extremidade	3	0.000772	0.000000	Marina Silva	308.85178	259.21838
PCdoB	3	0.000772	0.000000	Marina Silva	325.80313	252.02715
significa	3	0.000772	0.055556	Marina Silva	342.08023	240.25119
lenda	3	0.000772	0.000000	Marina Silva	297.9535	108.72742
participaram	3	0.000772	0.039394	Marina Silva	336.92053	231.17079
raça	3	0.000772	0.066667	Marina Silva	349.3988	130.86667
prb	3	0.000772	0.066667	Marina Silva	349.02988	124.26157
grave	3	0.000772	-0.148148	Marina Silva	265.1878	164.51044
política	3	0.000772	0.133333	Marina Silva	364.64777	218.32785
maia	3	0.000772	0.033333	Marina Silva	331.4602	248.42267
tse	3	0.000772	-0.175000	Marina Silva	259.68436	194.85083
pessoas	3	0.000772	0.050000	Marina Silva	343.8853	127.205536
crise	3	0.000772	0.062963	Marina Silva	346.83542	235.99905
desafio	3	0.000772	0.157407	Marina Silva	371.541	141.02754
ambiental	3	0.000772	0.033333	Marina Silva	326.5899	246.22054
indígena	3	0.000772	0.066667	Marina Silva	343.4184	120.64459
intenção	3	0.000772	0.008333	Marina Silva	323.86075	106.35664
educação	3	0.000772	0.020833	Marina Silva	330.2466	107.81844
reserva	3	0.000772	0.038889	Marina Silva	337.6607	117.29602
rocha	3	0.000772	0.000000	Marina Silva	320.2819	260.31808
apontada	3	0.000772	0.097980	Marina Silva	365.97775	159.8915
citado	3	0.000772	0.104924	Marina Silva	360.48184	230.73125
poderia	3	0.000772	0.022222	Marina Silva	328.06442	101.76752
velho	3	0.000772	0.070707	Marina Silva	347.93118	242.20364
governado	3	0.000772	0.033333	Marina Silva	331.15668	254.9639
must	3	0.000772	0.000000	Marina Silva	276.462	204.22331
defesa	3	0.000772	-0.020833	Marina Silva	300.60068	102.30121
banhos	3	0.000772	0.084722	Marina Silva	347.8615	229.85779
traseira	3	0.000772	0.016667	Marina Silva	325.54147	258.0675
mundo	3	0.000772	0.159722	Marina Silva	372.25208	134.0816
eleitoral	3	0.000772	0.069444	Marina Silva	348.7212	117.461624
nota	3	0.000772	0.138889	Marina Silva	372.03864	227.24397
tomar	3	0.000772	0.138889	Marina Silva	366.83817	122.75124
sabe	3	0.000772	-0.044444	Marina Silva	284.68213	112.497574
litígio	3	0.000772	0.005556	Marina Silva	307.41034	101.13865
movimento	4	0.001030	0.108333	Marina Silva	359.46054	237.7288
acções	4	0.001030	0.287500	Marina Silva	411.56284	179.80397
candidatos	4	0.001030	-0.079167	Marina Silva	285.25418	244.43204
recursos	4	0.001030	0.045119	Marina Silva	336.47983	110.396385
jacto	4	0.001030	-0.016667	Marina Silva	292.10126	247.0199
evento	4	0.001030	0.031250	Marina Silva	336.70007	244.34964
pontos	4	0.001030	0.083333	Marina Silva	354.66724	121.33695
nos	4	0.001030	0.075000	Marina Silva	349.1051	248.89645
vereador	4	0.001030	0.000000	Marina Silva	321.19238	100.693016
trabalhadores	4	0.001030	0.000000	Marina Silva	297.7047	251.21115
fundador	4	0.001030	0.062500	Marina Silva	342.68036	113.76586
informações	4	0.001030	0.005556	Marina Silva	330.7135	261.8664
Bolsonaro	4	0.001030	0.013889	Marina Silva	352.7177	236.69858
stf	4	0.001030	-0.050000	Marina Silva	297.37323	258.76364
conta	4	0.001030	0.055556	Marina Silva	342.6912	246.88042
decreto	4	0.001030	-0.006250	Marina Silva	293.50735	103.77501
lava	4	0.001030	-0.016667	Marina Silva	303.3665	255.5507
psc	4	0.001030	0.000000	Marina Silva	314.27878	100.42097
henrique	4	0.001030	0.000000	Marina Silva	314.52893	261.70474
Renca	4	0.001030	0.125000	Marina Silva	365.10043	225.03854
Número	4	0.001030	-0.015476	Marina Silva	286.3116	105.626366
protesto	4	0.001030	0.000000	Marina Silva	310.94922	94.76471
anterior	4	0.001030	-0.084722	Marina Silva	275.3209	141.29437
preconizada	4	0.001030	0.026190	Marina Silva	337.0231	251.21878
aplicações	4	0.001030	0.017708	Marina Silva	325.5295	95.52824
constituinte	4	0.001030	0.012500	Marina Silva	324.5715	265.09338
já	4	0.001030	0.212500	Marina Silva	388.096	143.17815
congresso	4	0.001030	0.076389	Marina Silva	354.66275	114.16402
perguntou	4	0.001030	0.107197	Marina Silva	361.40555	244.83684
fim	4	0.001030	0.287500	Marina Silva	412.41104	190.52092
margem	4	0.001030	0.125000	Marina Silva	360.6974	125.575615
real de	4	0.001030	0.183523	Marina Silva	378.8694	157.72397
eleições	4	0.001030	-0.097917	Marina Silva	269.947	211.97552
rousseff	4	0.001030	0.015625	Marina Silva	318.05334	94.709656
união	4	0.001030	0.112500	Marina Silva	360.9633	118.30871
juntar	4	0.001030	-0.043750	Marina Silva	282.40448	119.30395
ver	4	0.001030	0.000000	Marina Silva	310.63177	266.40628
reunião	4	0.001030	0.100000	Marina Silva	354.41327	243.50073
estratégica	4	0.001030	0.041667	Marina Silva	360.64377	132.60376
erro	4	0.001030	0.125000	Marina Silva	366.83728	231.95107
certeza	4	0.001030	0.318750	Marina Silva	422.5464	183.30933
banco	4	0.001030	0.036490	Marina Silva	334.9592	103.34944
militar	4	0.001030	-0.016667	Marina Silva	314.36673	273.0911
reformas	4	0.001030	0.060530	Marina Silva	343.43124	253.88533
olho	5	0.001287	0.480000	Marina Silva	474.0162	170.23592
visão	5	0.001287	-0.006667	Marina Silva	303.62585	95.61768
artistista	5	0.001287	0.450000	Marina Silva	463.0833	174.92572
argumentam	5	0.001287	0.450000	Marina Silva	464.5434	192.15294
manter	5	0.001287	0.480000	Marina Silva	473.96442	187.90111
levantamento	5	0.001287	0.033333	Marina Silva	337.23782	258.1943
preservando	5	0.001287	0.450000	Marina Silva	463.15842	184.4645
assistindo	5	0.001287	0.000000	Marina Silva	314.6	88.22986
central de	5	0.001287	0.013636	Marina Silva	329.9742	269.51907
parte	5	0.001287	0.032500	Marina Silva	341.86395	106.10317
dilma	5	0.001287	0.118333	Marina Silva	363.5817	252.04745
presidiu	5	0.001287	0.010000	Marina Silva	318.06586	267.1475
de segurança	5	0.001287	0.116000	Marina Silva	367.86285	115.532875
utilização	5	0.001287	0.053333	Marina Silva	348.3509	110.09119
sociedade	5	0.001287	0.480000	Marina Silva	473.01096	195.69638
chamado	5	0.001287	-0.081667	Marina Silva	274.29266	224.02661
nunca mais	5	0.001287	0.029429	Marina Silva	332.54956	96.605515
criando	5	0.001287	0.000000	Marina Silva	295.99637	96.75117
desde	5	0.001287	0.100000	Marina Silva	354.59985	106.5297
dar	5	0.001287	0.390000	Marina Silva	442.6113	176.72562
Brasil	5	0.001287	0.031667	Marina Silva	344.1499	261.4737
República	5	0.001287	0.040000	Marina Silva	348.1416	102.06853
Nome	5	0.001287	-0.033333	Marina Silva	290.90244	254.73395
round	5	0.001287	-0.083333	Marina Silva	269.00586	204.34859
grau	5	0.001287	0.110000	Marina Silva	361.28748	110.740715
concurso	5	0.001287	0.106667	Marina Silva	366.81967	239.38214
aprovado	5	0.001287	-0.058333	Marina Silva	290.8927	90.688484
suporte	5	0.001287	0.097778	Marina Silva	356.1512	250.68483
facebook	5	0.001287	-0.092500	Marina Silva	288.23822	98.205414
falso	5	0.001287	-0.066667	Marina Silva	293.92368	83.23774
mole a	5	0.001287	0.450000	Marina Silva	463.29645	166.91902
carreira	5	0.001287	0.000000	Marina Silva	303.5042	263.40494
precisa	5	0.001287	-0.066591	Marina Silva	298.3798	269.11432
realizada	5	0.001287	0.015000	Marina Silva	329.6059	89.681915
alckmin	6	0.001545	-0.013889	Marina Silva	306.14282	271.2998
supremo	6	0.001545	-0.033333	Marina Silva	298.91824	89.33537
ir	6	0.001545	0.191667	Marina Silva	380.32343	144.9018
pensão	6	0.001545	-0.029924	Marina Silva	309.18622	278.50623
reduzir	6	0.001545	0.074729	Marina Silva	350.47064	256.44568
criticado	6	0.001545	0.011905	Marina Silva	322.5729	272.7128
econômico de	6	0.001545	0.136650	Marina Silva	373.88983	234.85258
faria	6	0.001545	-0.025000	Marina Silva	306.96338	88.35587
seis	6	0.001545	0.094048	Marina Silva	358.46548	258.5485
de	6	0.001545	-0.034722	Marina Silva	302.1756	81.613785
corrida	6	0.001545	0.008796	Marina Silva	322.24994	88.80217
esquerda	6	0.001545	-0.029167	Marina Silva	310.50818	80.99907
perfil	6	0.001545	0.082176	Marina Silva	352.44824	95.34243
anos	6	0.001545	0.075000	Marina Silva	344.49307	269.60178
repetido	6	0.001545	0.000000	Marina Silva	320.50592	280.55142
instituto	6	0.001545	0.010880	Marina Silva	326.7296	82.644394
consecutivo	6	0.001545	-0.016667	Marina Silva	313.606	284.69238
prefeito	7	0.001802	0.032143	Marina Silva	340.89175	97.95098
legal	7	0.001802	0.244156	Marina Silva	399.16528	203.78238
lugar	7	0.001802	0.000000	Marina Silva	328.84515	277.49652
de trabalho	7	0.001802	0.117614	Marina Silva	369.4866	98.35021
sociais	7	0.001802	0.070159	Marina Silva	353.27557	86.54809
imposto	7	0.001802	0.140909	Marina Silva	373.77267	126.45617
prazo	7	0.001802	0.039286	Marina Silva	337.16977	265.8981
Michel	7	0.001802	0.077500	Marina Silva	368.80865	107.230194
congressista	7	0.001802	-0.014286	Marina Silva	305.83356	73.65996
nada	7	0.001802	0.391071	Marina Silva	445.20508	184.59818
sofreu	7	0.001802	0.000000	Marina Silva	318.74127	81.40201
partes	7	0.001802	0.118793	Marina Silva	367.09143	259.54224
eleição	7	0.001802	0.000782	Marina Silva	337.05344	90.09014
casa	7	0.001802	0.028571	Marina Silva	327.76163	285.27814
negócio	7	0.001802	0.178571	Marina Silva	377.0828	215.64021
representante	7	0.001802	0.000000	Marina Silva	305.0692	286.09412
anunciou	8	0.002060	-0.022917	Marina Silva	300.54626	277.70914
Rio	8	0.002060	0.012500	Marina Silva	324.00403	74.50767
segundo	8	0.002060	-0.047396	Marina Silva	295.88873	285.4221
representando	8	0.002060	0.581250	Marina Silva	504.86346	180.09702
atriz	8	0.002060	0.300000	Marina Silva	415.58667	161.96246
património	8	0.002060	0.581250	Marina Silva	518.9614	180.25606
maria	8	0.002060	0.300000	Marina Silva	422.41095	174.75159
receberam	8	0.002060	0.000000	Marina Silva	320.29883	289.6146
regulador	8	0.002060	0.016493	Marina Silva	332.45737	77.17318
necessário	8	0.002060	0.015335	Marina Silva	337.0009	274.48947
pública	8	0.002060	0.000000	Marina Silva	314.8703	73.67123
decisão	8	0.002060	0.027083	Marina Silva	345.36606	90.1634
juntou	8	0.002060	0.100000	Marina Silva	361.29208	102.0359
meirelles	9	0.002317	0.096296	Marina Silva	352.1768	265.10406
último	9	0.002317	0.052546	Marina Silva	340.29242	81.94703
federais	9	0.002317	0.029167	Marina Silva	328.6004	293.88425
sustentabilidade	9	0.002317	0.000000	Marina Silva	319.91443	299.00177
correu	10	0.002575	-0.005000	Marina Silva	296.31378	74.62587
rede de	10	0.002575	0.009167	Marina Silva	330.06848	67.77065
grande	10	0.002575	0.534167	Marina Silva	490.8715	179.88933
notícias	10	0.002575	-0.068611	Marina Silva	290.78467	264.02756
país	10	0.002575	0.290379	Marina Silva	413.0853	171.24243
filiados	11	0.002832	-0.023485	Marina Silva	311.5409	293.45816
quadra	11	0.002832	0.002273	Marina Silva	336.97333	284.3113
um	11	0.002832	-0.046717	Marina Silva	300.40103	65.356705
ambiente de	11	0.002832	0.000000	Marina Silva	310.20404	65.14932
de acordo com	11	0.002832	-0.029533	Marina Silva	291.17453	274.42102
termos	11	0.002832	0.000000	Marina Silva	320.07928	65.86839
feita	11	0.002832	0.038333	Marina Silva	338.12326	296.6272
pt	11	0.002832	-0.024495	Marina Silva	312.19177	47.02521
PSDB	11	0.002832	-0.019444	Marina Silva	315.6818	56.530266
senador	12	0.003090	0.000000	Marina Silva	320.38437	309.3953
temer	12	0.003090	0.062885	Marina Silva	345.83002	278.7556
presidencial	12	0.003090	0.009259	Marina Silva	339.98315	71.65765
inacio	13	0.003347	0.027360	Marina Silva	329.1879	303.44916
da	13	0.003347	0.027360	Marina Silva	337.7083	61.013367
pv	13	0.003347	-0.013462	Marina Silva	305.22583	55.586655
nacional	14	0.003605	0.106746	Marina Silva	361.71747	91.81682
Paulo	14	0.003605	0.081548	Marina Silva	346.45166	289.4121
sao	14	0.003605	0.079762	Marina Silva	349.49628	77.25043
anos	14	0.003605	0.052638	Marina Silva	330.27982	314.57782
votos	14	0.003605	0.000000	Marina Silva	310.78644	304.28635
candidatura	15	0.003862	0.012222	Marina Silva	326.5461	57.561504
presidência	15	0.003862	0.042045	Marina Silva	348.579	300.43677
eleitos	15	0.003862	0.043434	Marina Silva	345.91	53.25541
reforma	15	0.003862	0.074981	Marina Silva	356.26315	274.85367
política	16	0.004119	0.016611	Marina Silva	334.89645	49.9714
terceiro	16	0.004119	0.012500	Marina Silva	323.0076	323.57938
milhões	17	0.004377	0.020588	Marina Silva	339.7271	307.9184
PSB	17	0.004377	0.011765	Marina Silva	323.5546	45.746445
lula	21	0.005407	0.067731	Marina Silva	349.49954	64.93992
também	23	0.005922	0.019229	Marina Silva	326.2417	336.17603
candidato	24	0.006179	0.053935	Marina Silva	347.75116	40.640953
governo	25	0.006437	0.015485	Marina Silva	320.4564	32.59628
tempo de	26	0.006694	0.039984	Marina Silva	335.95462	325.97726
do partido	28	0.007209	0.034280	Marina Silva	333.9789	37.092014
silva	29	0.007467	-0.023463	Marina Silva	299.63196	297.0254
marina	30	0.007724	-0.020093	Marina Silva	310.58322	317.71692
ministra	34	0.008754	0.017463	Marina Silva	349.11963	318.33246
ex	36	0.009269	0.037674	Marina Silva	332.04376	21.962505
disse	55	0.014161	0.131120	Marina Silva	376.8599	248.73846
presidente	69	0.017765	0.047925	Marina Silva	335.16318	3.1911955
